<svg width="23" height="16" viewBox="0 0 23 16" fill="none" xmlns="http://www.w3.org/2000/svg">
    <path d="M0 7.76562L1.16534 8.93096L7.7656 15.5312L10.1067 13.2005L6.3218 9.41568H22.1418V6.11554H6.3218L10.1067 2.33068L7.7656 0L1.16534 6.60026L0 7.76562Z" transform="translate(23) scale(-1 1)" fill="#FFFFFF"/>
</svg>
