<?xml version="1.0" encoding="UTF-8"?>
<svg width="28px" height="16px" viewBox="0 0 28 16" version="1.1" xmlns="http://www.w3.org/2000/svg" xmlns:xlink="http://www.w3.org/1999/xlink">
    <!-- Generator: sketchtool 49.3 (51167) - http://www.bohemiancoding.com/sketch -->
    <title>81096AB6-BCA1-4E91-9C1E-A3FDC3390A4B</title>
    <desc>Created with sketchtool.</desc>
    <defs>
        <polygon id="path-1" points="0 0 28 0 28 16 0 16"></polygon>
    </defs>
    <g id="site" stroke="none" stroke-width="1" fill="none" fill-rule="evenodd">
        <g id="Регистрация" transform="translate(-811.000000, -384.000000)">
            <g id="Group-4" transform="translate(793.000000, 366.000000)">
                <g id="vk" transform="translate(18.000000, 18.000000)">
                    <mask id="mask-2" fill="white">
                        <use xlink:href="#path-1"></use>
                    </mask>
                    <g id="Clip-2"></g>
                    <path d="M24.0979866,10.1735253 C25.0267993,11.0891994 26.0070729,11.9507018 26.8401277,12.9586502 C27.2081199,13.4066027 27.5564793,13.8688575 27.8230262,14.3887077 C28.2006435,15.1276747 27.8586278,15.9408588 27.2023777,15.9849803 L23.1232912,15.9831028 C22.0712129,16.0712907 21.2319237,15.6436043 20.5262361,14.9172276 C19.9614783,14.3363582 19.4384469,13.7181594 18.8954,13.1176866 C18.6727671,12.8722846 18.4397437,12.6413505 18.1613842,12.45879 C17.6045014,12.0938346 17.1211732,12.2056018 16.8029466,12.7920485 C16.4788684,13.3884902 16.4053137,14.0489883 16.3734856,14.7137383 C16.3297902,15.6836395 16.0394543,15.9385947 15.0746026,15.9829924 C13.0126101,16.0812305 11.0556723,15.7661948 9.23769549,14.7158367 C7.6349687,13.7898915 6.39208571,12.4827006 5.31031212,11.0027786 C3.20407745,8.12112741 1.59106941,4.95470168 0.141412952,1.69948062 C-0.184907407,0.966090899 0.0537488772,0.572420592 0.855084928,0.558504907 C2.18585074,0.532385387 3.5163978,0.534207679 4.84869487,0.556627394 C5.38949963,0.564579214 5.74753874,0.877847786 5.95639034,1.39377732 C6.67635138,3.1813354 7.55731244,4.88203088 8.66309384,6.45842396 C8.95758607,6.87815856 9.25787518,7.29783795 9.6854768,7.59321492 C10.1585237,7.92028874 10.5186957,7.81188997 10.7412191,7.27978069 C10.8824223,6.94243577 10.9442739,6.57902656 10.976102,6.21766052 C11.0815395,4.97447079 11.0954301,3.73337945 10.910477,2.49455217 C10.7969457,1.72140335 10.36568,1.22088046 9.60164085,1.07460011 C9.21177361,0.999996575 9.26985174,0.853495337 9.45863302,0.628801204 C9.78648463,0.241260425 10.0948675,0 10.7095551,0 L15.3196026,0 C16.0453605,0.144623725 16.2065246,0.473851157 16.3058918,1.21127201 L16.3098293,6.38199813 C16.3019543,6.66743533 16.4510871,7.51452504 16.9602825,7.7034912 C17.3678138,7.83800949 17.6364389,7.50878206 17.8809467,7.24786297 C18.9847594,6.06491931 19.7724782,4.66700042 20.4762518,3.21943787 C20.7885721,2.58290573 21.0571425,1.92185548 21.3174003,1.26141265 C21.5102285,0.771326532 21.8128145,0.530121328 22.3595255,0.540834196 L26.7964323,0.544810106 C26.9279558,0.544810106 27.0611199,0.546798061 27.1884871,0.568776008 C27.9361747,0.697440872 28.1410341,1.02219541 27.9101434,1.75939538 C27.5463074,2.91605385 26.8383777,3.87988069 26.1461979,4.84823565 C25.4062759,5.88202746 24.614893,6.88047784 23.8811507,7.92039918 C23.2070178,8.87003423 23.2605568,9.34874483 24.0979866,10.1735253" id="Fill-1" fill="#FFFFFF" mask="url(#mask-2)"></path>
                </g>
            </g>
        </g>
    </g>
</svg>